regular_trk_rad50_JF.R
…
Make track in amt

trk <- mk_track(crane, .x=lon, .y=lat, .t=t, id = id, age=age)

## .t found, creating `track_xyt`.

Lets look at sampling rates for each individual

(timestats<-trk %>% nest(-id) %>% mutate(sr = map(data, summarize_sampling_rate)) %>%
    select(id, sr) %>% unnest)

## # A tibble: 46 x 10
##    id                         min    q1 median   mean    q3      max       sd     n unit 
##    <chr>                    <dbl> <dbl>  <dbl>  <dbl> <dbl>    <dbl>    <dbl> <int> <chr>
##  1 9A  (Santer)              1.72 15      15.7  112.   16.0 395566.   5875.    4534 min  
##  2 7C (Helliksen colt 2014)  3    14.9    15.6   26.1  16.1    564.     70.6    771 min  
##  3 6C (Rice Lake colt 2014)  1.9  15      15.7  142.   16   394564    5934.    4633 min  
##  4 2M (Bagley)               2.67 30.2    30.4  147.   30.6 394640.   6495.   11022 min  
##  5 4M (Ogema adult)          0.15 15.5    15.6  109.   15.9 394579.   5564.   15051 min  
##  6 5M (Beaulieu adult)       2.7  30.2    30.4  219.   30.9 394741.   8021.    2424 min  
##  7 3A  (Barb Wire)           5.48 30.2    30.4 2047.   30.9 500093.  28805.     737 min  
##  8 5A (W Staples colt #1)    1.58 15.5    15.6   92.0  15.9 394579.   5116.   17761 min  
##  9 1C   (W Staples colt #1)  4     8.55   15.2   13.3  15.5     28.1     5.24    54 hour 
## 10 4A (Dower colt)           1.58 15.4    15.5  156.   15.8 394574.   6844.    6627 min  
## # ... with 36 more rows
…
Make this a trajectory again

class(regtrk)<-class(trk)

Verify we have regular sampling rates

(timestats2<-regtrk %>% nest(-id) %>% mutate(sr = map(data, summarize_sampling_rate)) %>%
    select(id, sr) %>% unnest)

## # A tibble: 45 x 10
##    id                         min    q1 median  mean    q3     max    sd     n unit 
##    <chr>                    <dbl> <dbl>  <dbl> <dbl> <dbl>   <dbl> <dbl> <int> <chr>
##  1 9A  (Santer)              27.0  30.5   31.0 223.   31.6 395581. 8302.  2270 min  
##  2 7C (Helliksen colt 2014)  28.9  30.5   31    53.4  31.5    776.  111.   365 min  
##  3 6C (Rice Lake colt 2014)  27    30.5   31.1 282.   31.6 395229. 8419.  2308 min  
##  4 2M (Bagley)               27.0  30.2   30.4 157.   30.6 394695. 6725. 10301 min  
##  5 4M (Ogema adult)          27.1  30.7   31.1 195.   31.4 394579. 7451.  8395 min  
##  6 5M (Beaulieu adult)       27.4  30.2   30.4 247.   30.9 394827. 8518.  2152 min  
##  7 3A  (Barb Wire)           29.2  30.3   30.4  39.7  30.9   3155.  123.   665 min  
##  8 5A (W Staples colt #1)    27.0  31     31.2 171.   31.4 394579. 6967.  9573 min  
##  9 4A (Dower colt)           27.3  30.8   30.9 169.   31.2 394635. 6740.  3433 min  
## 10 6A (Pelican Rapids colt)  27.0  30.9   31.1 213.   31.4 394763. 7751.  5184 min  
## # ... with 35 more rows
…
Get rid of individuals with little data

trange <- function(x) {
  max(x)- min(x)
}
nt<-trk3 %>% group_by(id) %>% summarize(rangets=trange(t_)) 

large.n.cranes<-nt %>% filter(rangets > 90)
large.n.cranes %>% select(id)

## # A tibble: 31 x 1
##    id                           
##    <chr>                        
##  1 0C (Callaway colt 2014)      
##  2 0J (Waubun adult #2)         
##  3 0K Deglman #1                
##  4 0M (N of Mud Lake)           
##  5 1J (Santiago #3)             
##  6 1K (Melby colt #2)           
##  7 2A (Helliksen July 2015 colt)
##  8 2M (Bagley)                  
##  9 3K (Rasmussen adult)         
## 10 4A (Dower colt)              
## # ... with 21 more rows
…
